<?xml version="1.0" encoding="UTF-8"?>
<session version="1.0">
<refactoring comment="Move 4 elements to &apos;methodeTemplate/src&apos;&#x0A;- Original project: &apos;methodeTemplate&apos;&#x0A;- Destination element: &apos;methodeTemplate/src&apos;&#x0A;- Original elements:&#x0A;     TestBoissons.java&#x0A;     Cafe.java&#x0A;     Boisson.java&#x0A;     The.java&#x0A;- Update references to refactored element" description="Move files" destination="/src" element1="TestBoissons.java" element2="Cafe.java" element3="Boisson.java" element4="The.java" files="4" flags="589830" folders="0" id="org.eclipse.jdt.ui.move" policy="org.eclipse.jdt.ui.moveResources" qualified="false" references="true" stamp="1415100123088" units="0" version="1.0"/>
</session>