<?xml version="1.0" encoding="UTF-8"?>
<session version="1.0">
<refactoring comment="Delete resource &apos;patron_visiteur&apos;" deleteContents="false" description="Delete resource &apos;patron_visiteur&apos;" element1="/patron_visiteur" flags="7" id="org.eclipse.ltk.core.refactoring.delete.resources" resources="1" stamp="1456176319187"/>
</session>