<?xml version="1.0" encoding="UTF-8"?>
<session version="1.0">
<refactoring comment="Rename resource &apos;patron_strategie_text/testt.txt&#x0A;trail&#x0A;tttt&#x0A;ttttt&#x0A;tttttt&#x0A;This is a testeable project&apos; to &apos;test.txt&apos;" description="Rename resource &apos;testt.txt&#x0A;trail&#x0A;tttt&#x0A;ttttt&#x0A;tttttt&#x0A;This is a testeable project&apos;" flags="7" id="org.eclipse.ltk.core.refactoring.rename.resource" input="testt.txt&#x0A;trail&#x0A;tttt&#x0A;ttttt&#x0A;tttttt&#x0A;This is a testeable project" name="test.txt" stamp="1415753647580" updateReferences="true"/>
</session>